module gitlab.com/azr/packer-plugin-potato

go 1.17

require (
	github.com/hashicorp/hcl/v2 v2.10.1
	github.com/hashicorp/packer-plugin-sdk v0.2.5
	github.com/zclconf/go-cty v1.9.1
)

require (
	cloud.google.com/go v0.94.0 // indirect
	cloud.google.com/go/storage v1.16.1 // indirect
	github.com/Azure/go-ntlmssp v0.0.0-20200615164410-66371956d46c // indirect
	github.com/ChrisTrenkamp/goxpath v0.0.0-20210404020558-97928f7e12b6 // indirect
	github.com/agext/levenshtein v1.2.3 // indirect
	github.com/apparentlymart/go-textseg/v13 v13.0.0 // indirect
	github.com/armon/go-metrics v0.3.9 // indirect
	github.com/aws/aws-sdk-go v1.40.34 // indirect
	github.com/bgentry/go-netrc v0.0.0-20140422174119-9fd32a8b3d3d // indirect
	github.com/cenkalti/backoff/v3 v3.2.2 // indirect
	github.com/dylanmei/iso8601 v0.1.0 // indirect
	github.com/fatih/color v1.12.0 // indirect
	github.com/gofrs/flock v0.8.1 // indirect
	github.com/gofrs/uuid v4.0.0+incompatible // indirect
	github.com/golang/groupcache v0.0.0-20210331224755-41bb18bfe9da // indirect
	github.com/golang/protobuf v1.5.2 // indirect
	github.com/golang/snappy v0.0.4 // indirect
	github.com/google/go-cmp v0.5.6 // indirect
	github.com/google/uuid v1.3.0 // indirect
	github.com/googleapis/gax-go/v2 v2.1.0 // indirect
	github.com/hashicorp/consul/api v1.10.1 // indirect
	github.com/hashicorp/errwrap v1.1.0 // indirect
	github.com/hashicorp/go-cleanhttp v0.5.2 // indirect
	github.com/hashicorp/go-getter/gcs/v2 v2.0.0-20200604122502-a6995fa1edad // indirect
	github.com/hashicorp/go-getter/s3/v2 v2.0.0-20200604122502-a6995fa1edad // indirect
	github.com/hashicorp/go-getter/v2 v2.0.0 // indirect
	github.com/hashicorp/go-hclog v0.16.2 // indirect
	github.com/hashicorp/go-immutable-radix v1.3.1 // indirect
	github.com/hashicorp/go-multierror v1.1.1 // indirect
	github.com/hashicorp/go-retryablehttp v0.7.0 // indirect
	github.com/hashicorp/go-rootcerts v1.0.2 // indirect
	github.com/hashicorp/go-safetemp v1.0.0 // indirect
	github.com/hashicorp/go-sockaddr v1.0.2 // indirect
	github.com/hashicorp/go-version v1.3.0 // indirect
	github.com/hashicorp/golang-lru v0.5.4 // indirect
	github.com/hashicorp/hcl v1.0.0 // indirect
	github.com/hashicorp/serf v0.9.5 // indirect
	github.com/hashicorp/vault/api v1.1.1 // indirect
	github.com/hashicorp/vault/sdk v0.2.1 // indirect
	github.com/hashicorp/yamux v0.0.0-20210826001029-26ff87cf9493 // indirect
	github.com/jehiah/go-strftime v0.0.0-20171201141054-1d33003b3869 // indirect
	github.com/jmespath/go-jmespath v0.4.0 // indirect
	github.com/kr/fs v0.1.0 // indirect
	github.com/masterzen/simplexml v0.0.0-20190410153822-31eea3082786 // indirect
	github.com/masterzen/winrm v0.0.0-20210623064412-3b76017826b0 // indirect
	github.com/mattn/go-colorable v0.1.8 // indirect
	github.com/mattn/go-isatty v0.0.13 // indirect
	github.com/mitchellh/go-fs v0.0.0-20180402235330-b7b9ca407fff // indirect
	github.com/mitchellh/go-homedir v1.1.0 // indirect
	github.com/mitchellh/go-testing-interface v1.14.1 // indirect
	github.com/mitchellh/go-wordwrap v1.0.1 // indirect
	github.com/mitchellh/iochan v1.0.0 // indirect
	github.com/mitchellh/mapstructure v1.4.1 // indirect
	github.com/mitchellh/reflectwalk v1.0.0 // indirect
	github.com/nu7hatch/gouuid v0.0.0-20131221200532-179d4d0c4d8d // indirect
	github.com/packer-community/winrmcp v0.0.0-20180921211025-c76d91c1e7db // indirect
	github.com/pierrec/lz4 v2.6.1+incompatible // indirect
	github.com/pkg/sftp v1.13.2 // indirect
	github.com/ryanuber/go-glob v1.0.0 // indirect
	github.com/ugorji/go/codec v1.2.6 // indirect
	github.com/ulikunitz/xz v0.5.10 // indirect
	go.opencensus.io v0.23.0 // indirect
	golang.org/x/crypto v0.0.0-20210817164053-32db794688a5 // indirect
	golang.org/x/net v0.0.0-20210825183410-e898025ed96a // indirect
	golang.org/x/oauth2 v0.0.0-20210819190943-2bc19b11175f // indirect
	golang.org/x/sys v0.0.0-20210831042530-f4d43177bf5e // indirect
	golang.org/x/term v0.0.0-20210615171337-6886f2dfbf5b // indirect
	golang.org/x/text v0.3.7 // indirect
	golang.org/x/time v0.0.0-20210723032227-1f47c861a9ac // indirect
	google.golang.org/api v0.56.0 // indirect
	google.golang.org/appengine v1.6.7 // indirect
	google.golang.org/genproto v0.0.0-20210831024726-fe130286e0e2 // indirect
	google.golang.org/grpc v1.40.0 // indirect
	google.golang.org/protobuf v1.27.1 // indirect
	gopkg.in/square/go-jose.v2 v2.6.0 // indirect
)
